{
    “titre”: "titre",
    “hashtags”: {
        "esasi",
        "deuxièmeHashTag"
    }
    “paragraphe”:[
        "titre1": {
            "positionduParagrapheauTitre1",
            "motimportant1",
            "motimportant2",
            "motimportant3"
        },
        "titre2": "..."
    ]
}

